4354309731000	1.2990049	-0.2134974	-0.27305678
4354329854000	1.2990049	-0.21533	-0.2864958
4354349817000	1.3252722	-0.2171626	-0.28313604
4354369554000	1.3267993	-0.084910266	-0.28619036
4354389771000	1.2611313	0.012217305	-0.16890424
4354409479000	0.766025	0.0033597588	0.0067195175
4354429485000	0.16493362	-0.022907447	0.014966198
4354449513000	0.06169739	-0.011911872	0.014966198
4354469492000	0.08307768	0.00580322	0.009162978
4354489477000	0.09193522	0.01863139	0.002443461
4354509488000	0.086132	0.03145956	9.162979E-4
4354529488000	0.076052725	0.04153884	0.0036651916
4354549517000	0.080634214	0.093767814	0.017715093
4354569473000	0.044898596	0.083383106	0.022907447
4354589482000	-0.013133603	0.03359759	0.01160644
4354609489000	-0.017715093	0.09162979	-0.0036651916
4354629459000	0.08307768	0.172264	0.02107485
4354649503000	0.20311269	0.21960606	-0.042760566
4354669489000	0.14721853	0.24037547	-0.060170226
4354689483000	0.15515977	0.0852157	-0.02321288
4354709533000	0.12217305	0.030848695	0.029321533
4354729750000	0.0842994	-0.014660766	0.04062254
4354749526000	-0.12186762	-0.08735373	-0.021685716
4354769485000	0.077579886	-0.021380283	0.07360926
4354789474000	0.26236662	0.025350908	0.04550946
4354809542000	0.32406402	-0.014660766	0.06658431
4354829484000	0.076052725	-0.011911872	0.00580322
4354849521000	-0.07238753	0.057421334	-0.04917465
4354869500000	-0.045814894	0.11148291	-0.10048734
4354889491000	-0.004276057	0.13897185	-0.20677789
4354909460000	0.070554934	0.15760323	-0.31490102
4354929475000	0.11911872	0.16768251	-0.33933565
4354949516000	0.14721853	0.20708331	-0.38789943
4354969493000	0.12858713	0.30085114	-0.45112398
4354989482000	-0.024740042	0.30695978	-0.48624873
4355009619000	0.032986723	0.27763826	-0.52015173
4355029594000	0.14813483	0.5552765	0.30268374
4355049498000	-1.187522	-0.41386122	0.75136423
4355069493000	-1.0323622	0.58184916	0.06505715
4355089485000	-0.8784242	0.21991149	-0.108123146
4355109504000	-0.3313944	-0.26267207	-0.032375857
4355129464000	0.3222314	-0.30451632	-0.016187929
4355149465000	0.49632803	-0.22937989	-0.04550946
4355169464000	0.61941737	-0.054367006	-0.034513887
4355189477000	0.5503896	0.04520403	-0.06536258
4355209511000	0.37873647	0.04428773	-0.06780604
4355229483000	0.24556783	-0.0729984	-0.070554934
4355249532000	0.22999077	-0.116675265	-0.047036625
4355269577000	0.17715092	-0.03634648	0.010079277
4355289741000	0.030848695	-0.038789943	0.10476339
4355309486000	-0.054367006	0.013133603	0.22266038
4355329533000	-0.07269296	0.028710667	0.1160644
4355349502000	-0.11881329	0.04337143	0.11789699
4355369488000	-0.06780604	-0.013439035	0.06841691
4355389527000	0.014660766	-0.06811147	0.061391957
4355409710000	0.10415252	-0.044898596	0.061391957
4355429468000	0.14966199	-0.07819075	-0.008246681
4355449519000	0.25686884	0.03268129	0.0033597588
4355469538000	0.32559118	0.038179077	0.043676864
4355489465000	0.27916542	0.05681047	0.013744468
4355509479000	0.226631	0.04917465	0.07788532
4355529505000	0.23945917	0.03940081	0.105374254
4355549512000	0.2134974	0.06963864	0.12522738
4355569504000	0.118507855	0.08979719	0.03359759
4355589478000	0.084910266	0.13225232	0.02076942
4355609512000	0.058948494	0.20922135	0.12217305
4355629512000	-0.031154128	0.15882497	0.024740042
4355649534000	-0.0580322	0.21899518	0.081855945
4355669491000	-0.023518313	0.24465153	0.017104227
4355689478000	0.020158553	0.24312437	0.10140363
4355709469000	0.1133155	0.18051068	0.10629055
4355729498000	0.16523905	0.14019357	0.1704314
4355749464000	0.15118915	0.08460484	0.112399206
4355769460000	0.15974127	0.18875736	0.054061573
4355789459000	0.17806722	0.16707164	0.016493361
4355809491000	0.1853976	0.14446963	0.017104227
4355829484000	0.111177474	0.16401732	0.053145275
4355849486000	0.064751714	0.12858713	-0.15882497
4355869469000	0.03390302	0.056505036	-0.57818395
4355889519000	0.029626964	-0.06291912	-0.7831292
4355909470000	-0.008857546	-0.10293079	0.070249505
4355929476000	-0.07727446	-0.08460484	-0.15882497
4355949474000	-0.062308256	-0.21288654	-0.018020526
4355969527000	-0.0067195175	-0.18753563	-0.09560041
4355989807000	0.106901415	-0.12492194	-0.10567969
4356009535000	0.21533	-0.032375857	-0.13500121
4356029765000	0.29565877	0.05222898	-0.11453723
4356049604000	0.3286455	0.07086037	-0.16187929
4356069823000	0.2452624	0.042455133	-0.10354166
4356089525000	0.15302174	-0.022296581	-0.14660765
4356109481000	0.082161374	-0.023518313	-0.08246681
4356129455000	0.15363261	-0.046120327	-0.11484267
4356149452000	0.17898351	-0.07574729	0.016493361
4356169498000	0.258396	-0.17134771	-0.15363261
4356189491000	0.1994475	-0.22632557	-0.11911872
4356209471000	0.19639318	-0.23609942	-0.15760323
4356229469000	0.2660318	-0.24495697	-0.12583824
4356249461000	0.27183503	-0.17348573	-0.27855456
4356269520000	0.17684549	-0.021380283	-0.26633725
4356289465000	0.124005646	0.008246681	-0.2134974
4356309536000	0.18020524	-0.01985312	-0.26145032
4356329518000	0.27458394	-0.052534413	-0.30482176
4356349510000	0.30085114	-0.06841691	-0.2012801
4356369503000	0.35124752	0.004276057	0.28252518
4356389485000	0.3371976	0.04428773	0.0888809
4356409521000	0.16676621	0.030543262	-0.12858713
4356429515000	-0.040927973	0.029932396	-0.03359759
4356449517000	-0.020463986	-0.10598512	-0.026572637
4356469502000	-0.027488936	-0.10781772	0.036651913
4356489483000	-0.03390302	0.15393804	0.11728613
4356509527000	-0.03848451	0.2855795	0.05955936
4356529494000	-0.10903945	0.32467487	0.052839845
4356549502000	-0.15699236	0.33505958	0.01282817
4356569506000	-0.2415972	0.269697	0.12308934
4356589484000	-0.17928895	0.1966986	0.11026118
4356609479000	-0.018325957	0.2049453	-0.0036651916
4356629491000	0.13255776	0.26725355	-0.029626964
4356649487000	0.1337795	0.25625798	-0.09010262
4356669504000	0.046120327	0.21777347	-0.18997909
4356689489000	0.1554652	0.23976462	-0.42058071
4356709548000	0.6243043	0.15821409	-0.50915617
4356729515000	0.926988	0.21288654	-0.37720928
4356749503000	0.8481864	0.19517145	0.03481932
4356769526000	0.3631594	-0.116675265	-0.013744468
4356789491000	0.14844026	-0.15027285	0.06078109
4356809729000	0.19822577	0.03145956	0.16584991
4356829809000	0.092240654	0.09101892	0.1518
4356849492000	-0.032375857	0.09040806	0.105374254
4356869473000	-0.17592919	0.16157386	0.07422013
4356889466000	-0.35979962	0.2950479	0.09193522
4356909553000	-0.6441574	0.25167647	-0.20097467
4356929497000	-0.8164214	0.038179077	-0.42332962
4356949511000	-0.70432764	-0.24587326	-0.68844515
4356969511000	-0.3998113	-0.12950343	0.17501289
4356989526000	-0.0033597588	-0.040317107	0.084910266
4357009565000	0.03023783	-0.15668693	0.06688975
4357029492000	-0.061391957	0.017104227	0.116675265
4357049540000	-0.069027774	0.018936822	0.08246681
4357069480000	-0.10293079	0.018936822	0.2855795
4357089547000	-0.007941248	-0.06291912	0.1966986
4357109514000	0.1020145	-0.16890424	0.20463985
4357129515000	0.040317107	-0.20005837	0.20677789
4357149520000	-0.012217305	-0.22174409	-0.0030543262
4357169510000	-0.12736541	-0.084910266	0.20799962
4357189496000	-0.16279559	0.00580322	0.30176744
4357209519000	-0.09621128	0.018936822	0.087659165
4357229521000	-0.0571159	-0.122783914	0.09010262
4357249517000	-0.058948494	-0.2593123	0.14385876
4357269518000	-0.016798794	-0.2321288	0.03573562
4357289487000	0.02076942	-0.121256754	0.15088372
4357309523000	0.16218472	-0.15974127	0.14905111
4357329533000	0.25473082	-0.16035213	0.14172074
4357349526000	0.21044308	-0.094989546	0.020463986
4357369514000	0.063224554	0.009773844	0.025350908
4357389488000	0.044593163	-3.0543262E-4	0.049785517
4357409517000	-0.01038471	-0.055588737	-0.12186762
4357429514000	-0.09987647	-0.07513642	-0.09040806
4357449487000	0.042455133	-0.18051068	-0.18325958
4357469524000	0.18661933	-0.20952678	-0.15332718
4357489489000	0.22174409	-0.06414085	-0.09437868
4357509533000	0.1142318	0.04520403	0.35613444
4357529480000	6.1086525E-4	0.15210545	0.5723807
4357549467000	-0.01985312	0.16523905	0.050701816
4357569513000	-0.15363261	0.077579886	0.016798794
4357589486000	-0.20769419	0.057726767	0.029321533
4357609512000	-0.13133603	0.0018325958	0.024740042
4357629482000	-0.076358154	0.10293079	0.14569137
4357649479000	-0.04550946	0.20616703	0.15332718
4357669563000	-0.20647246	0.30268374	0.17745635
4357689485000	-0.3567453	0.19730948	0.11453723
4357711560000	-0.28802297	0.15577064	0.10140363
4357729554000	-0.03176499	0.17806722	0.16065755
4357749497000	0.093462385	0.22235495	0.095294975
4357769473000	0.16187929	0.204029	0.16676621
4357789511000	0.1001819	0.14966199	0.09987647
4357809449000	0.13805555	0.065973446	-0.15363261
4357829500000	0.27275133	0.15515977	-0.0729984
4357849481000	0.37720928	0.16310102	0.026572637
4357869538000	0.23487769	0.09896017	0.10934488
4357889477000	-0.07391469	0.11728613	0.1469131
4357909527000	-0.13194689	0.15149458	0.160963
4357929502000	-0.105374254	0.21074851	0.13347405
4357949522000	0.061391957	0.16646078	0.06719518
4357969516000	0.2125811	0.1881465	0.10445796
4357989526000	0.2302962	0.13591751	0.13805555
4358009515000	0.06627888	0.14569137	0.12950343
4358029494000	-0.018936822	0.15699236	0.053145275
4358049496000	0.016798794	0.08674286	0.0143553335
4358069516000	0.03940081	0.064446285	-0.23243423
4358089468000	0.051923547	-0.04153884	-0.6417139
4358109469000	0.08368854	-0.12156218	-0.5045747
4358129493000	0.13500121	-0.045814894	0.04550946
4358149502000	0.13744467	-0.16035213	-0.008552114
4358169482000	-0.026267206	-0.18600847	-0.13530666
4358189473000	6.1086525E-4	-0.0842994	0.0852157
4358209507000	0.13683382	-0.08307768	0.03481932
4358229511000	0.12339478	-0.13622294	0.0125227375
4358249515000	0.12186762	-0.1600467	0.086132
4358269498000	0.11178834	-0.17898351	0.02321288
4358289517000	0.053450707	-0.16249016	0.02687807
4358309524000	-0.0021380284	-0.14782938	-0.07422013
4358329510000	-0.03726278	-0.05131268	0.19761491
4358349706000	0.031154128	-0.040927973	0.100792766
4358369530000	-0.03604105	-0.07360926	0.15943582
4358389521000	-0.04886922	-0.14019357	0.17531833
4358409540000	-0.12003502	-0.13744467	0.06169739
4358429510000	-0.09773844	-0.06261369	0.18692477
4358449659000	0.062308256	-0.013133603	-0.013133603
4358469519000	0.03970624	-0.029321533	0.061391957
4358489535000	-0.063224554	0.018936822	0.042455133
4358509501000	-0.07941248	0.013133603	0.046120327
4358529499000	-0.032986723	-0.052839845	-0.041233405
4358549621000	0.03604105	-0.09407325	-0.099265605
4358569519000	0.063224554	-0.109650314	-0.087659165
4358589516000	0.12217305	-0.10048734	-0.05955936
4358609494000	0.17379116	-0.09560041	-0.0027488936
4358629493000	0.28924468	-0.053145275	0.50335294
4358649508000	0.31612277	0.15332718	0.3173445
4358669486000	0.17715092	0.2144137	0.14019357
4358689490000	-0.0027488936	0.267559	0.019547688
4358709483000	-0.050396383	0.30085114	0.10262536
4358729603000	-0.03176499	0.3408628	0.15088372
4358749485000	-0.07086037	0.4352415	0.19181168
4358769518000	-0.129198	0.3848451	0.160963
4358789535000	-0.099571034	0.22937989	0.14874569
4358809530000	-0.11789699	0.3023783	0.23823744
4358829510000	-0.19792034	0.34208453	0.26236662
4358849531000	-0.2144137	0.26267207	0.06383542
4358869546000	-0.08460484	0.16157386	0.027183503
4358889543000	0.09468412	0.29810223	0.12980886
4358909460000	0.18784106	0.3747658	0.15118915
4358929458000	0.21685717	0.3323107	0.12675454
4358949451000	0.17959438	0.22785273	0.1518
4358969475000	0.09682214	0.22907446	0.14905111
4358989464000	-0.014049901	0.24770586	0.18295415
4359009511000	0.005497787	0.25870144	0.12522738
4359029492000	0.06872234	0.2602286	0.1853976
4359049569000	0.096516706	0.23671028	0.16982053
4359069523000	-0.028405234	0.2761111	0.118202426
4359089520000	-0.0290161	0.22571471	0.079107046
4359109537000	0.03176499	0.1704314	0.05955936
4359129682000	0.03176499	0.10354166	0.027488936
4359149782000	0.028710667	0.09865474	0.027183503
4359169511000	-0.05467244	0.08368854	-0.12064589
4359189475000	-0.10048734	0.04153884	-0.56107974
4359209494000	0.07788532	-0.07696902	-0.0720821
4359229477000	0.30695978	-0.09437868	-0.14080444
4359249520000	0.38881573	-0.1518	-0.10140363
4359269529000	0.36896262	-0.14996742	-0.099265605
4359289537000	0.35460728	-0.18997909	-0.13591751
4359309519000	0.3359759	-0.16646078	-0.013439035
4359329540000	0.30298916	-0.07238753	-0.06872234
4359349496000	0.17256944	-0.115453534	-0.05497787
4359369597000	0.12003502	-0.15577064	-0.09162979
4359389576000	0.10170906	-0.21533	-0.08155051
4359409769000	0.086437434	-0.16615535	-0.022602014
4359429627000	0.19425514	-0.22204952	-0.06963864
4359449567000	0.23151793	-0.24098633	-0.15699236
4359469558000	0.20616703	-0.20311269	-0.032375857
4359489525000	0.1563815	-0.21105394	0.036651913
4359509467000	0.03970624	-0.20311269	0.03481932
4359529505000	0.0033597588	-0.10751228	-0.03726278
4359549456000	0.008246681	-0.071776666	-0.22418754
4359569469000	0.0290161	-0.103847094	0.18600847
4359589465000	0.16890424	-0.12767084	-0.09621128
4359609548000	0.11575896	-0.06505715	-0.09315695
4359629507000	0.062308256	-0.019242255	-0.12064589
4359649508000	0.025350908	-0.23823744	-0.112704635
4359669515000	-0.05589417	-0.25350907	-0.06963864
4359689527000	0.009162978	-0.09407325	0.04337143
4359709486000	0.12186762	-0.03023783	0.0711658
4359729497000	0.15943582	0.0036651916	0.33536503
4359749522000	0.20097467	0.05497787	0.7669413
4359769502000	0.06169739	0.15271631	0.076052725
4359789550000	-0.35094208	0.036957346	0.10048734
4359809514000	-0.41630468	-0.013133603	0.016493361
4359829493000	-0.24617869	0.036651913	-0.004581489
4359849481000	0.11484267	0.048258353	-3.0543262E-4
4359869500000	0.36835176	0.004886922	-0.035430185
4359889489000	0.34574974	-0.05009095	-0.08032878
4359909491000	0.17959438	-0.005497787	-0.0842994
4359929497000	0.15088372	0.055283304	-0.1563815
4359949493000	0.21166481	0.093462385	-0.17073683
4359969492000	0.2855795	0.20189096	0.018020526
4359989564000	0.11178834	0.33964106	0.16249016
4360009519000	-0.21502456	0.3885103	-0.0012217305
4360029502000	-0.32253686	0.38820487	0.0067195175
4360049561000	-0.11056661	0.35002577	0.011301007
4360069759000	0.014660766	0.2501493	0.032375857
4360089497000	0.05100725	0.13530666	-0.02443461
4360109505000	0.053450707	0.10567969	-0.09743301
4360129467000	0.014049901	0.10445796	-0.092240654
4360149463000	-0.04886922	0.10598512	-0.08246681
4360169493000	-0.1731803	0.06047566	-0.003970624
4360189495000	-0.20799962	-0.004581489	0.03390302
4360209531000	-0.007941248	-0.062002823	-0.008246681
4360229508000	0.1459968	-0.0067195175	0.050701816
4360249502000	0.14263703	0.019547688	0.03359759
4360269516000	0.022296581	0.05375614	-0.0036651916
4360289505000	-0.14202617	0.16249016	-0.4792238
