4354309731000	0.054256547	0.7068737	0.69301575
4354329854000	0.05046729	0.7027063	0.69659173
4354349817000	0.054319628	0.70384645	0.69420105
4354369554000	0.05959976	0.7047717	0.692078
4354389771000	0.06509991	0.70282584	0.6929074
4354409479000	0.06892482	0.69618833	0.6986379
4354429485000	0.071790434	0.6885731	0.70527434
4354469492000	0.07691873	0.68283176	0.7100792
4354489477000	0.082065485	0.6739242	0.71757364
4354509488000	0.08492807	0.6628733	0.7268083
4354529488000	0.087800115	0.6533869	0.7344132
4354549517000	0.091816194	0.6463827	0.73969585
4354569473000	0.096458286	0.6397994	0.7442939
4354589482000	0.099018164	0.6322613	0.7498646
4354609489000	0.09940414	0.6254532	0.75517267
4354629459000	0.10146839	0.6209473	0.75841117
4354649503000	0.10328509	0.61739206	0.76070434
4354669489000	0.10528785	0.6137798	0.7631756
4354689483000	0.10770824	0.61208457	0.76384753
4354709533000	0.10790081	0.6100309	0.7652986
4354729750000	0.109164454	0.60809773	0.7664055
4354749526000	0.11056271	0.60484576	0.7683445
4354769485000	0.11297614	0.605364	0.76770556
4354789474000	0.11464603	0.6047491	0.7676042
4354809542000	0.117902786	0.6047802	0.76700383
4354829484000	0.11958525	0.6040127	0.76720285
4354849521000	0.12168772	0.6043687	0.76656324
4354869500000	0.12329762	0.60421205	0.7662532
4354889491000	0.124288164	0.6033572	0.76636386
4354909460000	0.124859974	0.6027156	0.7663813
4354929475000	0.12492271	0.602235	0.76638114
4354949516000	0.12345987	0.60297084	0.76550794
4354969493000	0.12126655	0.6038353	0.76465505
4354989482000	0.11945595	0.6042124	0.7639567
4355009619000	0.11644328	0.6060368	0.76233417
4355029594000	0.11507543	0.60632384	0.76368064
4355049498000	0.1185878	0.5944564	0.77068365
4355069493000	0.09618631	0.59586114	0.7742979
4355089485000	0.110147245	0.58521956	0.77967364
4355109504000	0.11071124	0.57999647	0.7831949
4355129464000	0.106148556	0.57620305	0.7862563
4355149465000	0.10598051	0.5740764	0.786886
4355169464000	0.10815151	0.57670397	0.7840556
4355189477000	0.11175008	0.58020073	0.7801778
4355209511000	0.11528572	0.58392215	0.7761793
4355229483000	0.119285904	0.58686954	0.7726271
4355249532000	0.12184806	0.5886179	0.77029544
4355269577000	0.12388774	0.5891704	0.7690137
4355289741000	0.12729245	0.5893024	0.7677161
4355309486000	0.12984209	0.590347	0.7662925
4355329533000	0.13086592	0.59094584	0.7651105
4355349502000	0.1310288	0.59024906	0.7656586
4355369488000	0.1304772	0.59002876	0.7655794
4355389527000	0.12923281	0.58952147	0.76600116
4355429468000	0.12769946	0.58977145	0.7657277
4355449519000	0.12689427	0.59092987	0.7650201
4355469538000	0.12725541	0.5925745	0.7636564
4355489465000	0.12631302	0.5948163	0.76207185
4355509479000	0.12586707	0.5972184	0.7605536
4355529505000	0.12492258	0.60008806	0.75878394
4355549512000	0.12414544	0.6024092	0.75762075
4355569504000	0.12376177	0.6047505	0.7562436
4355589478000	0.12419042	0.60754937	0.75473636
4355609512000	0.124590844	0.61026114	0.75352377
4355629512000	0.12406648	0.61264277	0.7521947
4355649534000	0.12417263	0.61491805	0.75177115
4355669491000	0.124355316	0.6169794	0.7510106
4355689478000	0.12616347	0.61878663	0.7506469
4355709469000	0.1271258	0.62122566	0.7496592
4355729498000	0.12891297	0.6234265	0.74910486
4355749464000	0.13083068	0.6253655	0.7484406
4355769460000	0.13289341	0.62757236	0.74772817
4355789459000	0.13729726	0.6299266	0.74607694
4355809491000	0.14104022	0.63203263	0.74481785
4355829484000	0.14509267	0.63308823	0.74441355
4355849486000	0.14821897	0.6348049	0.74309295
4355869469000	0.14940931	0.63583785	0.7423141
4355889519000	0.14973447	0.6363804	0.741968
4355909470000	0.15354119	0.63506556	0.74347746
4355929476000	0.15252629	0.63529056	0.7428617
4355949474000	0.15777797	0.6340177	0.74355114
4355969527000	0.15892734	0.63390434	0.74356437
4355989807000	0.16155618	0.6337063	0.743363
4356009535000	0.16341062	0.6343353	0.742431
4356029765000	0.16395429	0.63603187	0.74092513
4356049604000	0.16335472	0.6382607	0.7390501
4356069823000	0.16283607	0.64030755	0.7373256
4356089525000	0.16067508	0.6425801	0.7354273
4356109481000	0.1587443	0.64407563	0.7342793
4356129455000	0.15601537	0.6456324	0.73293966
4356149452000	0.15438631	0.6465545	0.7321616
4356169498000	0.15193859	0.6487288	0.7297284
4356189491000	0.14939226	0.64876425	0.7294958
4356209471000	0.14465396	0.64945304	0.7285428
4356229469000	0.14138843	0.6503068	0.7269813
4356249461000	0.1352715	0.6506312	0.7259056
4356269520000	0.12962076	0.6497466	0.72613645
4356289465000	0.124127425	0.649032	0.7257618
4356309536000	0.118253276	0.64812773	0.72553355
4356329518000	0.11148196	0.64620364	0.72642523
4356349510000	0.10471219	0.64338446	0.7282975
4356369503000	0.10140743	0.6411856	0.73012143
4356389485000	0.09651017	0.64008874	0.730177
4356409521000	0.09336099	0.63736045	0.73243695
4356429515000	0.090340815	0.6340535	0.7356645
4356449517000	0.08742284	0.631566	0.73736
4356469502000	0.0846953	0.62775207	0.7408554
4356489483000	0.08184188	0.62534136	0.7436059
4356509527000	0.082092404	0.62493265	0.7438836
4356529494000	0.081894286	0.6246095	0.7446304
4356549502000	0.07954524	0.6246383	0.74527055
4356569506000	0.07801316	0.6232478	0.74725497
4356589484000	0.077019334	0.62310153	0.7478761
4356609479000	0.075141676	0.62342846	0.74830097
4356629491000	0.07371962	0.6252972	0.74750996
4356649487000	0.07294327	0.628046	0.7456157
4356669504000	0.071443096	0.6316305	0.7432312
4356689489000	0.07003925	0.6362702	0.7399248
4356709548000	0.07200236	0.6431752	0.73452485
4356729515000	0.06924227	0.65049297	0.7295981
4356749503000	0.07169891	0.6577228	0.72444487
4356769526000	0.07396859	0.6630574	0.71998626
4356789491000	0.07770261	0.66865623	0.7165587
4356809729000	0.08311853	0.672958	0.71381736
4356829809000	0.090283655	0.6748038	0.71258837
4356849492000	0.09760296	0.676791	0.71123123
4356869473000	0.10413532	0.6771865	0.71131605
4356889466000	0.11013647	0.6761103	0.7126257
4356909553000	0.113933325	0.67335457	0.71505266
4356929497000	0.11784867	0.66921365	0.7186532
4356949511000	0.11768818	0.6648927	0.7223398
4356969511000	0.11972127	0.6595304	0.72812605
4356989526000	0.11993328	0.65723157	0.7294292
4357009565000	0.12613729	0.65407145	0.73161346
4357029492000	0.12585907	0.6526431	0.7337068
4357049540000	0.12818092	0.65229464	0.7338663
4357089547000	0.12975244	0.6519033	0.73445183
4357109514000	0.130691	0.6516471	0.73475546
4357129515000	0.12969945	0.6507448	0.73597544
4357149520000	0.1298171	0.6508888	0.73573446
4357169510000	0.13217372	0.6505285	0.7361529
4357189496000	0.13317077	0.6509026	0.73565143
4357209519000	0.13288248	0.65146357	0.73506814
4357229521000	0.1328668	0.6510825	0.73542136
4357249517000	0.13167247	0.6509349	0.73554707
4357269518000	0.12836064	0.65169	0.73493224
4357289487000	0.12813866	0.6522829	0.7340869
4357309523000	0.12568465	0.6540637	0.7319547
4357329533000	0.1228529	0.6552152	0.7305909
4357349526000	0.11873528	0.6557038	0.72967815
4357369514000	0.114611246	0.65550774	0.7293794
4357389488000	0.11178421	0.6551866	0.728603
4357409517000	0.10727925	0.65252286	0.7297273
4357429514000	0.10293348	0.64763755	0.73316896
4357449487000	0.097632624	0.64340186	0.73548913
4357469524000	0.09225262	0.63775265	0.73952335
4357489489000	0.0869579	0.6324732	0.7433844
4357509533000	0.085436195	0.6268747	0.7479579
4357529480000	0.08247597	0.6232498	0.75122267
4357549467000	0.079340614	0.6200705	0.75370795
4357569513000	0.07798848	0.61435264	0.75947905
4357589486000	0.0733769	0.6087002	0.76479006
4357609512000	0.06946524	0.6036536	0.7692229
4357629482000	0.06669979	0.59857965	0.77399176
4357649479000	0.06507009	0.59546334	0.776781
4357669563000	0.06306408	0.5922255	0.77997696
4357689485000	0.06152532	0.5896542	0.7821885
4357711560000	0.05896068	0.5881573	0.78398776
4357729554000	0.05893324	0.58687544	0.7853073
4357749497000	0.059036568	0.58629817	0.7856954
4357769473000	0.060746536	0.5878479	0.78469217
4357789511000	0.061508838	0.58994704	0.7830124
4357809449000	0.06542578	0.5941868	0.77919596
4357829500000	0.06905714	0.59922427	0.7756165
4357849481000	0.07337454	0.6055739	0.7704464
4357869538000	0.076772794	0.61153644	0.76597095
4357889477000	0.078795426	0.61668974	0.76264644
4357909527000	0.08405465	0.6226707	0.7584294
4357929502000	0.08821457	0.62687504	0.75588256
4357949522000	0.09369458	0.6306925	0.7533486
4357969516000	0.098490044	0.63431907	0.75123423
4357989526000	0.10388849	0.6374141	0.7491757
4358009515000	0.108618215	0.63920397	0.74830335
4358029494000	0.11350851	0.6409541	0.74726075
4358049496000	0.11926893	0.6416684	0.7467541
4358069516000	0.12244845	0.64161557	0.74693084
4358089468000	0.12471873	0.6412942	0.74697375
4358109469000	0.12770572	0.6409924	0.7472525
4358129493000	0.12865356	0.6408516	0.7478237
4358149502000	0.13211288	0.6415679	0.74641836
4358169482000	0.13475525	0.6406131	0.7471574
4358189473000	0.1380913	0.64071864	0.7470932
4358209507000	0.13998735	0.64161396	0.7459832
4358229511000	0.14081287	0.64168835	0.74592364
4358249515000	0.14140688	0.6426988	0.7451295
4358269498000	0.14043474	0.6433617	0.7446336
4358289517000	0.14082062	0.6437263	0.7441946
4358309524000	0.14000106	0.644894	0.742991
4358329510000	0.1428439	0.6453476	0.74219483
4358349706000	0.14317252	0.64662397	0.7404881
4358369530000	0.14384377	0.6460465	0.74077624
4358389521000	0.14425838	0.64659137	0.73990583
4358409540000	0.14175414	0.64592844	0.74044377
4358429510000	0.14019756	0.64517933	0.7410843
4358449659000	0.1355742	0.64588726	0.74041176
4358469519000	0.1341889	0.645125	0.7407899
4358489535000	0.130539	0.64442706	0.7412296
4358509501000	0.1261639	0.643076	0.74227345
4358529499000	0.12036021	0.64086986	0.74391586
4358549621000	0.11396575	0.63752997	0.7465866
4358569519000	0.10760491	0.6334559	0.7498247
4358589516000	0.101468764	0.6299671	0.7524769
4358609494000	0.096184954	0.62589186	0.7556181
4358629493000	0.09318141	0.62211776	0.7591853
4358649508000	0.08716276	0.6195982	0.7613356
4358669486000	0.08691815	0.6164153	0.7641103
4358689490000	0.0820339	0.61316496	0.76758504
4358709483000	0.07764601	0.61009413	0.7710192
4358729603000	0.07224083	0.6070548	0.774316
4358749485000	0.06645848	0.6032237	0.7784563
4358769518000	0.062432375	0.60009336	0.7816218
4358789535000	0.059888523	0.5984107	0.7836373
4358809530000	0.05656302	0.59654456	0.78610873
4358829510000	0.05511894	0.59577227	0.78722966
4358849531000	0.055215314	0.59620476	0.7870316
4358869546000	0.057662807	0.5974915	0.786377
4358889543000	0.057443064	0.59987974	0.7852919
4358909460000	0.05773073	0.6037354	0.7828185
4358929458000	0.06056099	0.6095871	0.77870685
4358949451000	0.06442748	0.6153284	0.7747203
4358969475000	0.066989854	0.62064457	0.77121943
4358989464000	0.07147503	0.6249915	0.7683811
4359009511000	0.07536521	0.62968725	0.7651885
4359029492000	0.08054048	0.6333676	0.7628212
4359049569000	0.084260665	0.6363949	0.7609041
4359069523000	0.08870785	0.63776654	0.7602409
4359089520000	0.09424011	0.63966036	0.75884444
4359109537000	0.098731495	0.6401475	0.75860864
4359129682000	0.10368123	0.6395814	0.7590204
4359149782000	0.108364455	0.63892484	0.7594266
4359169511000	0.11189229	0.6376406	0.76028574
4359189475000	0.113836974	0.6364159	0.76109064
4359209494000	0.12031221	0.63524103	0.7614731
4359229477000	0.118742004	0.6352991	0.76159906
4359249520000	0.12224522	0.6354595	0.76105374
4359269529000	0.12420041	0.6364493	0.7599974
4359289537000	0.12671125	0.63839936	0.75798583
4359309519000	0.1295011	0.63993096	0.756337
4359329540000	0.12971127	0.6417677	0.7547569
4359349496000	0.1320032	0.6430362	0.75329316
4359369597000	0.13123311	0.64477056	0.7519404
4359389576000	0.13114682	0.64582926	0.7510335
4359409769000	0.13020796	0.64690584	0.7502755
4359429627000	0.12892653	0.6496208	0.7480587
4359449567000	0.12780888	0.65225273	0.745882
4359469558000	0.12714729	0.65507746	0.7434843
4359489525000	0.12533285	0.65885705	0.7403194
4359509467000	0.12225954	0.66222054	0.73767775
4359529505000	0.11805206	0.66551304	0.73518753
4359549456000	0.11351524	0.6685585	0.7327297
4359569469000	0.11195878	0.6703714	0.7311122
4359589465000	0.10504245	0.67313284	0.7287789
4359609548000	0.10095231	0.6730452	0.72890884
4359629507000	0.09491836	0.6732816	0.7285594
4359649508000	0.09035975	0.67151713	0.7295221
4359669515000	0.0833839	0.66764426	0.7327597
4359689527000	0.07573707	0.6632911	0.73641074
4359709486000	0.07033832	0.65886986	0.73971236
4359729497000	0.06697621	0.65426624	0.74355125
4359749522000	0.06528959	0.6506075	0.74689656
4359769502000	0.059419144	0.64634436	0.7502277
4359789550000	0.06116307	0.638792	0.75696003
4359809514000	0.057725705	0.6330235	0.7617923
4359829493000	0.05643167	0.6262038	0.76747394
4359849481000	0.05564416	0.6216303	0.771136
4359869500000	0.05526461	0.61854804	0.7734362
4359889489000	0.055539858	0.6168401	0.77459395
4359909491000	0.055626698	0.61661255	0.77461594
4359929497000	0.054211736	0.6185019	0.77283394
4359949493000	0.054860637	0.62002134	0.77129334
4359969492000	0.055493113	0.62239635	0.769446
4359989564000	0.05514369	0.624646	0.7677185
4360009519000	0.05534083	0.6273573	0.76546746
4360029502000	0.05664069	0.63063455	0.763278
4360049561000	0.05669174	0.6344355	0.76062214
4360069759000	0.057364427	0.6369502	0.75907695
4360089497000	0.059084937	0.6409723	0.75621164
4360109505000	0.060084898	0.64544886	0.7530853
4360129467000	0.060586844	0.649188	0.7504897
4360149463000	0.06303445	0.65323067	0.7475182
4360169493000	0.06462148	0.65568405	0.74606574
4360189495000	0.06633363	0.6574905	0.74514246
4360209531000	0.07025583	0.6593775	0.74391997
4360229508000	0.07609506	0.6599899	0.74365294
4360249502000	0.082031615	0.6605173	0.7431617
4360269516000	0.08965873	0.6609846	0.7424651
4360289505000	0.09334077	0.6611721	0.7421032
