0.0013387398
0.003711356
0.0061529446
0.009298423
0.012772411
0.016162565
0.017158624
0.016985616
0.016607184
0.016086444
0.015233143
0.014757268
0.015620796
0.018034011
0.020795066
0.022377145
0.022692367
0.021511205
0.019640492
0.018682005
0.018061336
0.017619094
0.017922977
0.018640278
0.019115293
0.01888257
0.018142123
0.017116876
0.015608672
0.014157533
0.013538819
0.013362557
0.012323085
0.011205342
0.013316769
0.01714329
0.020902384
0.023879604
0.02520802
0.024681292
0.022975681
0.02014097
0.016389469
0.016342107
0.021389322
0.023711631
0.02253441
0.022357933
0.021827267
0.021311825
0.02083382
0.02106564
0.023680523
0.025421577
0.025575275
0.026410146
0.02791384
0.028534012
0.028791478
0.03186172
0.034999795
0.034537703
0.03286071
0.03210039
0.032856256
0.03354451
0.03540736
0.0363352
0.034144547
0.03181098
0.028631918
0.0281101
0.029057164
0.028199783
0.026386539
0.023929412
0.021585852
0.019381601
0.017569233
0.017477036
0.018881155
0.019017046
0.016826417
0.012503246
0.00842493
0.0073960796
0.010100054
0.013782783
0.017227752
0.01950139
0.021502675
0.023632497
0.025510682
0.026896922
0.027548341
0.027744282
0.026909787
0.02583013
0.025645118
0.02456465
0.022199636
0.022718517
0.026650941
0.033333044
0.040456608
0.044781283
0.046576325
0.04468718
0.04024911
0.034985665
0.029772507
0.026360184
0.025279071
0.024865808
0.024380181
0.024703529
0.025454132
0.024471834
0.019335417
0.012694569
0.0058870804
0.0023477152
0.0052641938
0.012233608
0.018010141
0.020986717
0.02202957
0.021997916
0.023265157
0.026285205
0.027915446
0.026609477
0.024129787
0.02280901
0.02511623
0.028864982
0.032338686
0.036819298
0.043300916
0.051317845
0.05723243
0.06193377
0.06362338
0.061567195
0.05458236
0.04322448
0.031996522
0.024473712
0.025411015
0.029466316
0.03033255
0.026837219
0.023432164
0.023051271
0.02353678
0.023537453
0.023630375
0.023265833
0.02221397
0.020945871
0.017963253
0.013757514
0.010867313
0.008072531
0.006586901
0.008693244
0.01319377
0.017556055
0.021932298
0.02629688
0.028953921
0.029758923
0.03066765
0.030444128
0.02767165
0.023918401
0.023008324
0.025195017
0.024385
0.021590617
0.019645883
0.018022947
0.016640335
0.015149294
0.013089515
0.011179693
0.0133351255
0.018240737
0.021885583
0.025761407
0.029310627
0.030555831
0.028705528
0.025836924
0.022230862
0.016158532
0.009096396
0.0040492765
0.0050845887
0.008850203
0.013139842
0.018798113
0.023727912
0.026985597
0.03059249
0.034070875
0.035874348
0.03495634
0.033383526
0.032033645
0.02939156
0.025510171
0.022702208
0.021185465
0.021458903
0.023057677
0.025848601
0.03171865
0.03600958
0.0386852
0.036499586
0.034155626
0.031679936
0.030577522
0.030581018
0.030138984
0.027287623
0.021491235
0.014641949
0.009551534
0.006785267
0.004686708
0.0041724956
0.005885825
0.0086858
0.01202041
0.014872793
0.015769076
0.016535353
0.01896094
0.021179453
0.022054827
0.021513117
0.020793187
0.021474933
0.021721495
0.021073772
0.01994768
0.018666942
0.018128155
0.0185891
0.020045891
0.022035303
0.023757668
0.024648944
0.024847215
0.024935232
0.02434476
0.021691335
0.016598547
0.015508034
0.020845992
0.024064898
0.024673482
0.026760662
0.028087009
0.028567538
0.030620212
0.03147693
0.030012958
0.0281556
0.02564046
0.021356536
0.015674574
0.011787993
0.009513695
0.007910286
0.0071561155
0.010252714
0.013888699
0.018935684
0.023543207
0.02623816
0.028258638
0.031125203
0.03313841
0.032473627
0.029564906
0.026002342
0.024353132
0.023430532
0.0228016
0.025316492
0.028640477
0.03212917
0.033947807
0.03367818
0.034399472
0.034797087
0.03379063
0.03142206
0.028158313
0.02398414
0.019391675
0.014904522
0.010882103
0.006635644
0.003209478
0.007465601
0.012902646
0.015932485
0.015646871
0.012986296
0.014040327
0.017854128
0.02014579
0.02165542
0.021895904
0.02240628
0.023890318
0.025284441
0.02637931
0.027216451
0.027931478
0.028678898
0.028984724
0.029088924
0.029694932
0.03119524
0.032557532
0.032723363
0.03068236
0.026319578
0.021035418
0.016171733
0.013880178
0.01428353
0.015996652
0.01714448
0.018118942
0.018776886
0.019300269
0.020095902
0.020721493
0.02049557
0.01974582
0.020222943
0.021790966
0.02328235
0.024920492
0.02642609
0.027728362
0.027632562
0.026140915
0.02555746
0.025531359
0.0247422
0.022232775
0.01985251
0.019145152
0.019437077
0.02057389
0.022183064
0.024571197
0.027604774
0.029447775
0.02882652
0.02622602
0.024283834
0.023859823
0.023259439
0.022132313
0.0210251
0.020469114
0.02127365
0.022828044
0.023730528
0.024039986
0.025190577
0.027674897
0.030068748
0.030277235
0.0294406
0.028808871
0.028046459
0.026893131
0.025536008
0.023908708
0.02321844
0.024642153
0.026266722
0.027868377
0.028240642
0.028575718
0.029894875
0.03010492
0.027876455
0.025308477
0.023392716
0.022546513
0.023339557
0.02481127
0.026554318
0.029243834
0.033466775
0.035987478
0.036670633
0.03734471
0.037681628
0.03740983
0.03597349
0.032432772
0.025116343
0.0146854
0.0052724755
0.0018969572
0.0070811813
0.0123758195
0.018274575
0.024728542
0.030661752
0.03468424
0.036789045
0.03887805
0.03969389
0.03865776
0.036809668
0.032649934
0.026811952
0.021790007
0.017297536
0.013285092
0.010065579
0.0070644272
0.0043772776
0.0022136103
0.0018235369
0.005240262
0.009736389
0.012512494
0.014086837
0.015947487
0.019149063
0.02434697
0.02879796
0.033296637
0.03726758
0.039349236
0.04009463
0.03936735
0.036953297
0.03291452
0.027989706
0.023470413
0.018807225
0.014276129
0.010601566
0.008886528
0.008337842
0.008852189
0.01083172
0.014302
0.018380255
0.020752875
0.021745905
0.021714076
0.020434625
0.019958293
