-0.018195927	0.0028730482	-0.025856972
-0.037349544	-0.0067037567	-0.045010567
-0.037349544	-0.0067037567	0.0028734207
9.576827E-4	-0.0067037567	0.04118061
9.576827E-4	-0.0067037567	-0.006703377
-0.027772732	-0.0067037567	-0.025856972
9.576827E-4	0.03160347	-0.006703377
0.0201113	0.041180283	-0.016280174
-0.008619122	0.022026666	-0.054587364
-0.027772732	-0.0067037567	-0.025856972
9.576827E-4	0.0028730482	-0.06416416
-0.027772732	-0.025857367	0.0028734207
-0.04692635	-0.016280562	-0.025856972
-0.037349544	-0.025857367	-0.06416416
-0.018195927	-0.016280562	0.012450218
-0.018195927	-0.016280562	0.012450218
-0.008619122	-0.025857367	0.012450218
-0.008619122	0.0028730482	0.022027016
-0.008619122	0.0028730482	-0.03543377
-0.008619122	0.012449861	-0.016280174
-0.008619122	0.012449861	0.012450218
-0.018195927	0.0028730482	0.04118061
0.029688105	-0.0067037567	0.0028734207
0.029688105	0.03160347	0.0028734207
0.058418527	0.022026666	-0.006703377
0.03926491	-0.025857367	0.012450218
0.010534491	-0.045010984	-0.03543377
0.010534491	-0.0067037567	0.0028734207
-0.018195927	0.022026666	-0.03543377
0.0201113	0.022026666	-0.016280174
9.576827E-4	0.0028730482	-0.025856972
9.576827E-4	-0.025857367	0.0028734207
9.576827E-4	-0.025857367	-0.025856972
-0.018195927	0.012449861	0.0028734207
-0.008619122	0.012449861	-0.016280174
-0.018195927	0.0028730482	-0.025856972
9.576827E-4	-0.016280562	0.0028734207
0.010534491	-0.045010984	0.012450218
9.576827E-4	-0.035434175	0.022027016
-0.018195927	-0.016280562	0.069911
-0.037349544	-0.0067037567	0.012450218
-0.018195927	-0.0067037567	0.0028734207
-0.018195927	-0.016280562	0.022027016
-0.018195927	-0.016280562	0.022027016
9.576827E-4	-0.035434175	0.022027016
0.010534491	-0.035434175	0.012450218
0.010534491	-0.035434175	0.012450218
0.0201113	-0.0067037567	0.012450218
9.576827E-4	0.022026666	0.012450218
-0.008619122	0.012449861	-0.03543377
0.0201113	0.0028730482	-0.054587364
0.029688105	0.022026666	-0.025856972
0.010534491	-0.025857367	0.022027016
9.576827E-4	-0.035434175	-0.006703377
0.029688105	-0.025857367	-0.025856972
0.029688105	0.012449861	-0.006703377
0.029688105	-0.0067037567	0.04118061
0.029688105	-0.0067037567	0.05075741
9.576827E-4	-0.0067037567	0.012450218
0.0201113	0.041180283	0.0028734207
0.010534491	0.05075708	-0.016280174
0.03926491	-0.016280562	-0.006703377
0.010534491	-0.035434175	-0.03543377
9.576827E-4	-0.025857367	-0.006703377
0.010534491	-0.0067037567	0.012450218
-0.008619122	-0.0067037567	-0.016280174
9.576827E-4	-0.025857367	0.05075741
0.010534491	0.0028730482	0.04118061
0.029688105	0.03160347	-0.025856972
0.0201113	0.012449861	0.012450218
0.010534491	0.0028730482	-0.016280174
-0.056503154	-0.0067037567	-0.054587364
-0.06607997	0.0028730482	-0.054587364
-0.04692635	-0.025857367	-0.045010567
-0.037349544	-0.035434175	-0.06416416
-0.018195927	0.0028730482	-0.054587364
-0.008619122	-0.025857367	-0.06416416
-0.018195927	-0.016280562	-0.054587364
9.576827E-4	-0.0067037567	-0.025856972
-0.018195927	-0.025857367	0.0028734207
-0.027772732	-0.016280562	-0.045010567
-0.027772732	-0.0067037567	-0.025856972
9.576827E-4	0.0028730482	-0.016280174
0.010534491	0.022026666	-0.016280174
-0.008619122	0.012449861	-0.016280174
-0.027772732	0.0028730482	0.0028734207
9.576827E-4	0.012449861	0.0028734207
9.576827E-4	0.0028730482	-0.03543377
0.010534491	-0.0067037567	-0.006703377
-0.008619122	-0.016280562	-0.054587364
-0.018195927	0.012449861	-0.016280174
0.0201113	0.0028730482	-0.03543377
0.029688105	0.012449861	-0.016280174
0.010534491	-0.016280562	-0.006703377
0.0201113	-0.016280562	0.012450218
0.03926491	-0.025857367	-0.006703377
0.0201113	-0.016280562	0.031603813
-0.008619122	-0.035434175	0.04118061
0.029688105	0.012449861	-0.006703377
0.0201113	0.022026666	0.04118061
0.0201113	-0.0067037567	0.022027016
0.029688105	-0.0067037567	0.012450218
0.010534491	-0.016280562	-0.025856972
9.576827E-4	0.0028730482	-0.025856972
9.576827E-4	0.022026666	-0.016280174
9.576827E-4	0.022026666	-0.025856972
0.029688105	0.0028730482	-0.045010567
9.576827E-4	-0.025857367	-0.03543377
0.0201113	-0.016280562	0.0028734207
0.010534491	-0.016280562	0.012450218
-0.018195927	0.0028730482	-0.016280174
0.0201113	-0.016280562	-0.006703377
0.029688105	-0.025857367	-0.054587364
9.576827E-4	0.0028730482	-0.045010567
0.010534491	0.012449861	-0.025856972
9.576827E-4	-0.0067037567	0.0028734207
-0.008619122	-0.016280562	-0.006703377
-0.008619122	-0.035434175	-0.006703377
-0.008619122	-0.045010984	0.022027016
-0.008619122	-0.0067037567	-0.006703377
-0.037349544	-0.025857367	0.012450218
9.576827E-4	-0.035434175	-0.006703377
0.029688105	-0.025857367	0.022027016
-0.018195927	-0.045010984	0.022027016
0.010534491	-0.025857367	-0.016280174
9.576827E-4	-0.025857367	-0.025856972
0.0201113	-0.035434175	-0.006703377
9.576827E-4	-0.05458779	0.022027016
-0.008619122	-0.0067037567	0.012450218
0.03926491	-0.0067037567	0.0028734207
0.03926491	-0.035434175	-0.006703377
0.03926491	0.012449861	-0.07374096
0.03926491	0.0028730482	-0.025856972
0.029688105	-0.0067037567	-0.025856972
0.029688105	0.041180283	0.0028734207
0.010534491	-0.0067037567	-0.03543377
0.029688105	-0.016280562	-0.054587364
0.0201113	-0.025857367	0.012450218
0.0201113	-0.025857367	-0.025856972
0.010534491	-0.0067037567	0.0028734207
9.576827E-4	0.03160347	-0.06416416
9.576827E-4	0.012449861	-0.025856972
0.0201113	0.022026666	0.0028734207
0.0201113	0.022026666	0.0028734207
9.576827E-4	-0.016280562	-0.025856972
9.576827E-4	-0.016280562	-0.025856972
9.576827E-4	-0.016280562	0.0028734207
0.0201113	0.0028730482	0.022027016
0.010534491	0.0028730482	-0.016280174
0.0201113	0.041180283	-0.045010567
9.576827E-4	-0.0067037567	-0.025856972
9.576827E-4	0.012449861	-0.006703377
0.0201113	0.03160347	0.0028734207
0.010534491	-0.016280562	0.0028734207
0.0201113	-0.0067037567	0.060334206
0.0201113	-0.0067037567	0.04118061
0.029688105	0.03160347	-0.045010567
-0.008619122	-0.0067037567	-0.054587364
0.010534491	0.022026666	-0.016280174
9.576827E-4	0.0028730482	-0.016280174
-0.008619122	-0.016280562	0.012450218
-0.037349544	0.0028730482	-0.006703377
-0.008619122	0.012449861	0.0028734207
-0.027772732	0.012449861	-0.016280174
-0.018195927	-0.016280562	-0.03543377
-0.037349544	-0.025857367	-0.025856972
-0.027772732	-0.0067037567	0.012450218
-0.008619122	-0.016280562	-0.045010567
-0.018195927	0.0028730482	-0.03543377
-0.008619122	0.03160347	-0.016280174
-0.018195927	-0.016280562	-0.006703377
-0.056503154	-0.045010984	0.022027016
-0.027772732	-0.035434175	0.012450218
9.576827E-4	-0.016280562	-0.045010567
-0.008619122	-0.025857367	0.0028734207
-0.018195927	-0.016280562	-0.03543377
0.010534491	-0.016280562	0.0028734207
0.03926491	0.0028730482	0.0028734207
0.029688105	-0.016280562	0.012450218
9.576827E-4	-0.035434175	0.04118061
0.04884172	-0.045010984	-0.016280174
0.0201113	-0.045010984	-0.025856972
0.010534491	0.012449861	-0.006703377
0.029688105	0.012449861	0.012450218
-0.008619122	-0.0067037567	0.031603813
-0.027772732	-0.016280562	0.05075741
-0.037349544	-0.016280562	0.022027016
-0.008619122	-0.016280562	0.012450218
-0.037349544	-0.045010984	-0.006703377
-0.008619122	-0.025857367	-0.006703377
0.010534491	-0.016280562	-0.025856972
9.576827E-4	-0.0067037567	-0.006703377
9.576827E-4	-0.0067037567	0.022027016
0.0201113	0.0028730482	0.031603813
9.576827E-4	0.012449861	0.05075741
-0.008619122	-0.025857367	0.0028734207
-0.008619122	0.0028730482	-0.006703377
9.576827E-4	-0.025857367	-0.025856972
-0.018195927	-0.05458779	-0.006703377
-0.008619122	-0.035434175	0.0028734207
0.029688105	-0.025857367	-0.006703377
0.0201113	-0.016280562	-0.006703377
0.04884172	-0.0067037567	-0.025856972
0.03926491	-0.016280562	-0.025856972
0.04884172	-0.0067037567	-0.006703377
0.010534491	-0.016280562	-0.016280174
0.010534491	0.0028730482	-0.025856972
9.576827E-4	-0.0067037567	-0.006703377
-0.027772732	-0.016280562	-0.006703377
-0.008619122	-0.025857367	-0.006703377
-0.037349544	-0.035434175	-0.03543377
-0.018195927	0.022026666	-0.03543377
-0.008619122	0.012449861	-0.025856972
0.010534491	0.03160347	-0.025856972
-0.008619122	0.0028730482	-0.006703377
9.576827E-4	0.0028730482	-0.016280174
0.0201113	-0.0067037567	-0.016280174
0.04884172	0.012449861	-0.03543377
0.0201113	0.012449861	-0.025856972
0.010534491	0.012449861	-0.092894554
0.029688105	-0.0067037567	-0.092894554
0.058418527	-0.0067037567	-0.054587364
0.0201113	-0.0067037567	-0.06416416
0.029688105	-0.0067037567	-0.045010567
0.010534491	-0.0067037567	-0.03543377
0.029688105	0.012449861	-0.006703377
-0.008619122	0.022026666	-0.045010567
9.576827E-4	-0.0067037567	-0.03543377
9.576827E-4	-0.0067037567	-0.03543377
0.0201113	0.0028730482	-0.03543377
0.03926491	-0.0067037567	-0.016280174
0.029688105	0.0028730482	-0.025856972
-0.027772732	-0.0067037567	-0.025856972
-0.008619122	0.0028730482	0.031603813
-0.008619122	0.022026666	-0.006703377
-0.04692635	-0.0067037567	-0.016280174
-0.008619122	-0.035434175	-0.016280174
-0.027772732	-0.035434175	-0.03543377
-0.018195927	-0.0067037567	-0.016280174
-0.008619122	0.012449861	-0.025856972
0.010534491	0.022026666	0.012450218
0.03926491	0.022026666	-0.006703377
-0.008619122	0.0028730482	0.022027016
9.576827E-4	0.05075708	-0.006703377
-0.008619122	0.03160347	-0.025856972
-0.018195927	0.05075708	-0.03543377
0.0201113	0.022026666	0.031603813
0.0201113	0.03160347	0.04118061
0.0201113	0.022026666	0.012450218
0.0201113	0.060333893	0.012450218
9.576827E-4	0.041180283	0.031603813
0.0201113	0.012449861	0.012450218
0.03926491	0.0028730482	0.012450218
-0.027772732	-0.025857367	0.04118061
-0.018195927	0.0028730482	0.031603813
-0.008619122	-0.025857367	-0.006703377
9.576827E-4	-0.025857367	-0.006703377
0.0201113	-0.025857367	0.0028734207
0.010534491	-0.016280562	0.031603813
0.04884172	-0.016280562	0.022027016
0.029688105	-0.025857367	0.0028734207
0.010534491	-0.0067037567	-0.006703377
0.0201113	-0.016280562	-0.006703377
9.576827E-4	0.0028730482	-0.025856972
9.576827E-4	-0.0067037567	0.012450218
0.03926491	-0.016280562	-0.025856972
0.0201113	-0.035434175	0.022027016
0.0201113	-0.025857367	0.012450218
0.010534491	-0.016280562	0.012450218
0.03926491	0.012449861	0.031603813
0.04884172	-0.016280562	0.04118061
0.04884172	-0.016280562	0.012450218
0.0201113	-0.025857367	-0.006703377
0.03926491	0.022026666	0.012450218
0.03926491	-0.016280562	-0.054587364
0.029688105	-0.0067037567	-0.016280174
0.010534491	-0.016280562	0.04118061
0.029688105	-0.025857367	0.012450218
0.010534491	-0.016280562	-0.016280174
9.576827E-4	-0.0067037567	-0.025856972
9.576827E-4	0.0028730482	0.04118061
-0.008619122	-0.0067037567	0.012450218
-0.018195927	0.0028730482	0.0028734207
9.576827E-4	0.041180283	0.0028734207
-0.008619122	0.0028730482	-0.016280174
-0.04692635	-0.016280562	0.012450218
-0.027772732	-0.0067037567	0.022027016
0.010534491	0.0028730482	-0.016280174
-0.008619122	-0.025857367	-0.045010567
-0.027772732	0.0028730482	-0.03543377
-0.04692635	-0.0067037567	-0.054587364
-0.018195927	0.012449861	-0.016280174
0.010534491	0.0028730482	0.0028734207
0.029688105	-0.0067037567	-0.006703377
0.029688105	-0.0067037567	-0.045010567
0.0201113	0.0028730482	-0.07374096
0.010534491	0.012449861	-0.06416416
-0.037349544	0.022026666	-0.025856972
-0.027772732	0.0028730482	0.0028734207
-0.018195927	0.022026666	0.0028734207
0.010534491	0.012449861	-0.006703377
-0.008619122	0.012449861	0.0028734207
-0.037349544	-0.016280562	-0.025856972
-0.018195927	0.022026666	-0.045010567
-0.018195927	0.012449861	-0.045010567
-0.04692635	-0.016280562	-0.08331776
-0.04692635	0.0028730482	-0.016280174
-0.008619122	0.012449861	-0.045010567
0.010534491	0.05075708	-0.03543377
-0.018195927	0.0028730482	0.012450218
-0.04692635	-0.016280562	-0.006703377
-0.008619122	0.012449861	0.012450218
-0.008619122	-0.025857367	0.0028734207
-0.04692635	-0.05458779	0.0028734207
-0.04692635	-0.045010984	0.031603813
9.576827E-4	0.012449861	-0.025856972
0.03926491	-0.025857367	-0.025856972
0.029688105	-0.0067037567	-0.016280174
0.04884172	0.0028730482	0.012450218
0.010534491	-0.025857367	0.0890646
0.0201113	-0.016280562	0.060334206
0.03926491	-0.0067037567	0.060334206
0.03926491	-0.016280562	-0.016280174
0.029688105	0.012449861	-0.054587364
9.576827E-4	-0.0067037567	-0.08331776
9.576827E-4	0.012449861	-0.03543377
0.0201113	0.03160347	0.0028734207
-0.008619122	0.0028730482	-0.045010567
-0.008619122	0.012449861	-0.03543377
-0.008619122	-0.0067037567	0.0028734207
-0.018195927	0.0028730482	0.0028734207
-0.04692635	-0.025857367	-0.006703377
-0.037349544	-0.035434175	-0.006703377
0.0201113	0.0028730482	0.04118061
9.576827E-4	-0.035434175	0.05075741
-0.018195927	-0.025857367	0.012450218
-0.027772732	-0.0067037567	-0.025856972
-0.008619122	-0.0067037567	-0.045010567
-0.037349544	-0.016280562	-0.045010567
-0.008619122	0.022026666	-0.025856972
-0.018195927	0.012449861	-0.025856972
-0.037349544	0.012449861	-0.054587364
0.010534491	0.03160347	-0.016280174
0.058418527	0.0028730482	-0.016280174
0.058418527	-0.025857367	0.0028734207
0.010534491	-0.0067037567	-0.07374096
0.010534491	-0.016280562	-0.03543377
0.010534491	-0.016280562	-0.03543377
0.010534491	0.0028730482	-0.03543377
0.010534491	0.0028730482	-0.03543377
9.576827E-4	0.03160347	-0.025856972
0.0201113	0.041180283	-0.045010567
0.0201113	0.012449861	0.0028734207
0.04884172	-0.016280562	0.031603813
0.029688105	0.0028730482	-0.006703377
0.029688105	0.0028730482	0.04118061
0.0201113	0.012449861	0.031603813
9.576827E-4	-0.0067037567	-0.045010567
-0.027772732	-0.025857367	-0.006703377
-0.018195927	-0.045010984	-0.016280174
