8.9417474E-4
0.001607855
0.0014543273
0.001215949
0.0018374056
0.0032835898
0.0038741527
0.0028374856
0.0018666632
0.0032151376
0.0072712717
0.010582731
0.0139747085
0.015466092
0.015478791
0.017253244
0.020882962
0.020618267
0.017538391
0.015918484
0.014746296
0.014217301
0.015102674
0.015978707
0.01569582
0.014619197
0.013266374
0.01190374
0.014427091
0.015925072
0.015082806
0.012517168
0.009021713
0.005855971
0.0046735248
0.0039062714
0.0026955688
0.001997624
0.0022277597
0.0035301084
0.0045050937
0.0042829113
0.0035223956
0.0029775903
0.0028775693
0.0030336243
0.0025944433
0.0011306932
0.0029614177
0.0036917333
0.0030854472
0.003176296
0.004332679
0.0064480035
0.009058457
0.0117969075
0.01471101
0.015616933
0.0144675635
0.01566761
0.018638304
0.020251393
0.021132058
0.02280481
0.022999203
0.021120375
0.018292142
0.015457133
0.013957589
0.015690003
0.016195497
0.014621621
0.012126025
0.01134488
0.0104017565
0.009569409
0.009433238
0.007200899
0.0027320313
0.0028183248
0.009703506
0.011923325
0.009940112
0.006632009
0.004341879
0.0041286666
0.0049013128
0.004423968
0.0037672613
0.003926698
0.0036514683
0.0038209846
0.0050103893
0.0061405604
0.0065795337
0.004298211
0.0031447602
0.00551365
0.009220504
0.01102869
0.01209203
0.013827995
0.014795988
0.014858108
0.014740774
0.014879355
0.012797002
0.010024747
0.007903569
0.00625891
0.006275112
0.0072112386
0.008658221
0.008939835
0.008593765
0.008693034
0.008174497
0.0062247925
0.0031203604
7.2777394E-4
0.003462553
0.003993984
0.0028001382
0.001772032
0.0018513444
0.003298753
0.006259338
0.007994759
0.008105186
0.007486634
0.005387978
0.0036389679
0.0038195879
0.0055765607
0.008721003
0.01022166
0.0082263155
0.0064863064
0.0063447673
0.0057586073
0.004452633
0.0027861672
